
Tango Original Name 	  -->     JS App Name
--------------------------------------------
media-floppy.png                edit-save-tango.png
view-fullscreen.png             edit-drag-drop-tango.png


FamFamFam Original Name -->     JS App Name
--------------------------------------------
arrow_out.png                   edit-drag-drop-famfamfam.png
disk.png                        edit-save-famfamfam.png